{
  "data": [
    {
      "id": 1,
      "name": "Vel in porro deserunt et. Rerum ipsam cupiditate aut dolore temporibus.",
      "brand": "molestiae",
      "description": "Sequi qui voluptatem alias facilis a id doloremque. Magnam voluptatum asperiores id reprehenderit et dolores. Numquam ullam nihil doloribus ea quo. Nisi eius sint et ab rerum quasi est. Odio laudantium eaque modi nesciunt est dolor vitae. Quo voluptas voluptas consequatur quae voluptatum eius sit. Est reiciendis provident aut ipsum. Quam est aut eos quis illum voluptatibus quia. Sit a laudantium adipisci quisquam. Eos commodi quo harum labore nobis odit. Aspernatur numquam quibusdam sed qui. Sunt dolorum ut sint aut at. Impedit eos praesentium vel magni totam quis. Sed rerum ratione voluptas voluptate ea. Sit officiis odit sed nemo aspernatur porro exercitationem. Eum quis natus doloremque sed praesentium. Est dolores quia voluptate quod. Et optio et saepe voluptas eos. Eum nulla maxime eum. Iste ut in rem consequuntur. Quia et voluptates ratione accusantium et. Deleniti non qui fugit laborum id voluptas.",
      "section": "clothing",
      "sub_section": "female",
      "category": "Underwear & Lingerie",
      "price": 3689.21,
      "color": "DimGray",
      "material": "fuga",
      "images": "[]",
      "options": "[]",
      "created_at": "2019-09-07 14:38:22",
      "updated_at": "2019-09-07 14:38:22"
    },
    {
      "id": 2,
      "name": "Aut accusantium ipsam ad vitae sint alias quae.",
      "brand": "voluptates",
      "description": "Voluptatem illo qui quis sed sapiente iusto delectus. Pariatur necessitatibus sequi excepturi. Doloribus cum corporis repellendus dolorum corporis provident. Ipsum enim quasi quis vel expedita et. Earum nihil aut alias fuga eos molestiae quod et. Tenetur eius necessitatibus et dolorum amet expedita odio. Impedit illum temporibus facilis aperiam eligendi placeat. Odio quod quia id voluptas aut eveniet. Magni in nihil voluptatum quasi. Quo placeat consequatur corrupti velit recusandae maiores id. Maxime voluptate repellendus aut quidem vel aut. Quos cumque quas suscipit dolorem. Aut doloribus blanditiis ut. Error atque et dolore quibusdam. Sed fugit ex esse vero dignissimos. Occaecati et minus qui. Repudiandae quia facere atque natus odio rerum. Eius placeat dignissimos ut et corrupti quibusdam. Voluptatem asperiores voluptates omnis nemo atque. Consectetur accusantium cumque quas repudiandae qui. Laudantium laudantium vitae est doloremque. Nihil repellat corporis quia ex reprehenderit.",
      "section": "clothing",
      "sub_section": "female",
      "category": "Shirts",
      "price": 14189120.28,
      "color": "Violet",
      "material": "omnis",
      "images": "[]",
      "options": "[]",
      "created_at": "2019-09-07 14:38:23",
      "updated_at": "2019-09-07 14:38:23"
    },
    {
      "id": 3,
      "name": "Et assumenda velit porro possimus minima.",
      "brand": "quis",
      "description": "Et commodi qui rerum ut ut dolores. Placeat aspernatur ea earum praesentium earum distinctio. Odio suscipit aperiam quis tempore omnis ipsa hic. Quia omnis est optio necessitatibus vitae velit. Quasi ut labore atque et ad. Sit vitae provident incidunt tenetur. Et vel possimus saepe ex cupiditate occaecati. Quo qui sunt id harum. Molestias inventore ea ipsam qui ut voluptatem. Quisquam laboriosam eum et quis nobis enim qui. Consequatur a dolorem quas rerum. Porro dolorem sed qui odio eaque explicabo amet. Corrupti quam totam non aliquid sunt molestiae. Dicta ut nulla doloribus dolore ipsum quasi. Provident libero enim quod quo in dolorem ut. Illo fugit nesciunt id aut. Incidunt consequuntur est maiores laboriosam sequi nihil. Omnis nemo odio quo maiores. Expedita illo necessitatibus quia ut amet veritatis accusamus. Quis doloribus est doloribus qui eos iste quae. Odit aperiam at eum nisi. Quod voluptatem nesciunt reprehenderit qui.",
      "section": "shoes",
      "sub_section": "male",
      "category": "Snadals & Slippers",
      "price": 13009.1,
      "color": "GreenYellow",
      "material": "et",
      "images": "[]",
      "options": "[]",
      "created_at": "2019-09-07 14:38:23",
      "updated_at": "2019-09-07 14:38:23"
    },
    {
      "id": 4,
      "name": "Repellat esse ut ipsum impedit quia commodi omnis.",
      "brand": "sint",
      "description": "Esse qui error in inventore. Maiores quaerat ab eligendi autem id laboriosam voluptatem. Et sint illum delectus vel culpa aut. Non adipisci laudantium eos maxime minus. Quos quia eum dolorum modi et voluptatem. Atque molestiae non officia possimus. Deserunt rerum eveniet fugiat cum voluptas quis. Est asperiores omnis nihil rerum ea harum fugit. Cupiditate maiores vitae tempora explicabo dolorum. Et ut officiis eveniet veniam. Cumque ea voluptatibus harum perferendis eligendi. Autem dolores nulla fugit consequatur inventore culpa ea. Sit dicta adipisci excepturi. Molestiae repellat enim eum sed necessitatibus consectetur consectetur. Temporibus quae facere quam minima repellendus voluptatem quibusdam. Iure distinctio dolor exercitationem qui molestias. Et nam eos tenetur voluptatem est deleniti. Quam quae nobis itaque. Dolores nesciunt harum soluta cum.",
      "section": "clothing",
      "sub_section": "female",
      "category": "Sweatshirts & Hoodies",
      "price": 7.52,
      "color": "Wheat",
      "material": "numquam",
      "images": "[]",
      "options": "[]",
      "created_at": "2019-09-07 14:38:23",
      "updated_at": "2019-09-07 14:38:23"
    },
    {
      "id": 5,
      "name": "Quia consectetur libero reiciendis est dolores sunt iste.",
      "brand": "veritatis",
      "description": "Iure eligendi autem est beatae et cumque id. Veritatis excepturi rerum aperiam sequi aut. Labore vel omnis sed consequatur veritatis recusandae illum. Alias adipisci rerum earum consequatur magni illo. Error voluptatem aut delectus. Reiciendis excepturi illo est eum. Incidunt qui est in vitae atque magni. Molestiae omnis exercitationem est reprehenderit quis et. Fuga architecto et hic et fuga unde in. Quidem est aut aperiam qui. Quod iure dolores ab corrupti voluptatem eveniet. Excepturi totam optio eligendi unde id error provident. Quod labore quisquam voluptas maiores. Suscipit repellat aut occaecati est doloremque quas qui. Non voluptas ut optio cumque animi aut repellat. Maxime dolor reprehenderit ratione quidem. Itaque velit culpa animi quaerat dolore a omnis. Qui consequuntur repellendus sit. Recusandae quam quibusdam temporibus in molestias quae aut. Doloremque harum illum voluptatem omnis. Molestias unde iure illum corrupti. Sunt earum mollitia veritatis at deleniti aut.",
      "section": "clothing",
      "sub_section": "male",
      "category": "Shorts",
      "price": 0,
      "color": "Pink",
      "material": "sint",
      "images": "[]",
      "options": "[]",
      "created_at": "2019-09-07 14:38:23",
      "updated_at": "2019-09-07 14:38:23"
    },
    {
      "id": 6,
      "name": "Est ut dolore et corrupti sed et.",
      "brand": "quasi",
      "description": "Soluta quasi omnis voluptas ut expedita minus totam quasi. Sit voluptatem dolore quos ut ut beatae quidem. Non soluta ad dolores officia excepturi odit est. Ut totam ipsam sed quasi aliquam sint. Dolorem non voluptatem et reiciendis dolorum voluptate. Id eos modi delectus accusantium repellendus. Ut aut sunt autem voluptatem sapiente reprehenderit saepe. Sunt quia ut ratione reprehenderit. Molestiae neque corporis iusto. Veritatis molestias sit molestiae voluptatem rem laboriosam perspiciatis. Id similique eum cumque ipsam. Est eum rerum cumque autem dolores. Ut fugiat sit nihil. Ut officia quod saepe debitis. Ducimus qui vero placeat ut nihil voluptatem. Nisi est animi repudiandae voluptas ut corrupti aut id. Voluptatem dolor voluptas velit et et quis veniam commodi. Explicabo aperiam ut ut perspiciatis cupiditate. Velit quo dolores quam. Consequatur voluptates tempora ut. Quia veniam id iusto animi. Incidunt reiciendis repudiandae ea unde reprehenderit unde omnis voluptas.",
      "section": "bags & watches",
      "sub_section": "female",
      "category": "bags & watches",
      "price": 112180386.57,
      "color": "Brown",
      "material": "porro",
      "images": "[]",
      "options": "[]",
      "created_at": "2019-09-07 14:38:23",
      "updated_at": "2019-09-07 14:38:23"
    },
    {
      "id": 7,
      "name": "Enim rerum dolores consectetur voluptatem alias consequatur eum.",
      "brand": "a",
      "description": "Maxime dolorum in magnam neque incidunt. Nisi ratione voluptatem iste dolorum accusantium vitae voluptatem rem. Eaque perferendis eum beatae modi et eligendi aperiam. Quam commodi officiis sed exercitationem molestiae. Quasi odio nobis aut quam. Minima suscipit officiis a consequuntur neque harum. Est inventore non impedit consequatur consequatur perspiciatis nobis. Rerum quidem a ducimus ipsam cupiditate qui. Sapiente temporibus aut laudantium sit repellat consequuntur. Quos consectetur molestias consequatur est molestias ut. Non qui quam culpa laudantium occaecati incidunt odit. Qui corporis assumenda non ad quam iusto. Est corrupti sapiente tempore odio qui laboriosam. Perspiciatis laborum debitis ea tempore aut porro. Quia accusamus itaque nemo vitae tempore. Ut cupiditate odio odit in totam. Quasi sit doloremque est ex deleniti iste. Natus delectus quisquam laudantium.",
      "section": "accessories",
      "sub_section": "female",
      "category": "accessories",
      "price": 191995.02,
      "color": "DarkMagenta",
      "material": "et",
      "images": "[]",
      "options": "[]",
      "created_at": "2019-09-07 14:38:23",
      "updated_at": "2019-09-07 14:38:23"
    },
    {
      "id": 8,
      "name": "Fugit corporis quae voluptates vel.",
      "brand": "voluptatibus",
      "description": "Ut corporis amet est tenetur ad unde. Ad numquam molestiae et ex sit. Ut et velit laboriosam. Vitae dolor alias quam. Aliquid quisquam voluptatem repudiandae delectus sunt et. Ratione et laborum id quis et sit eos. Dolores ut quas tempora quis aut similique repellat. Quos cum nesciunt iusto non. Nisi voluptas voluptas recusandae aperiam ut. Expedita soluta ipsam facilis consequuntur quas ea placeat. Natus deserunt id incidunt minus. Porro dolores aut asperiores fuga. Dolorum ullam officia sint sapiente similique consequatur. A sunt illum ut accusantium. Iste facilis qui cupiditate et repudiandae repellat. Id accusantium rerum aut et. Iste dolorem asperiores laudantium harum. Error reprehenderit pariatur ducimus quos sed molestiae illo asperiores. Ipsam sunt debitis quo. Culpa odio in voluptate. Sit eligendi soluta laborum provident. Qui accusamus aut doloremque ab aut quia ex.",
      "section": "bags & watches",
      "sub_section": "male",
      "category": "bags & watches",
      "price": 37568.33,
      "color": "LightYellow",
      "material": "corporis",
      "images": "[]",
      "options": "[]",
      "created_at": "2019-09-07 14:38:23",
      "updated_at": "2019-09-07 14:38:23"
    },
    {
      "id": 9,
      "name": "Ratione eius modi omnis et et omnis.",
      "brand": "voluptatum",
      "description": "Rerum voluptate ut ut velit. At quae ullam corrupti dolor qui qui. Tempora ut magni in iusto. Architecto voluptatibus perferendis quae. Cumque velit aliquam labore dolor. Quam hic totam quo mollitia. Aut ad voluptatem ea ab molestiae totam aut. Incidunt aut modi labore provident molestias nihil. Necessitatibus laboriosam necessitatibus perferendis. Eum ut aliquid quam dolore. Et in laborum blanditiis incidunt et. Ut rem inventore est est deserunt porro temporibus. Iusto sed explicabo id est et provident. Illum recusandae consectetur dolorem autem non deleniti qui. Asperiores eaque velit doloribus quis aliquam quod magni. Omnis incidunt facere nihil quasi porro qui. Eum qui qui autem qui. Rerum repellat vel et voluptatem corrupti aliquid aut. Est accusamus minus consequatur beatae. Nobis ut odit sit sit. Sed provident quaerat inventore nobis explicabo optio hic quaerat. Beatae omnis provident similique culpa omnis ad. Esse qui quia dolorem. Ut et pariatur aliquid qui recusandae.",
      "section": "accessories",
      "sub_section": "male",
      "category": "accessories",
      "price": 1.81,
      "color": "MediumBlue",
      "material": "omnis",
      "images": "[]",
      "options": "[]",
      "created_at": "2019-09-07 14:38:23",
      "updated_at": "2019-09-07 14:38:23"
    },
    {
      "id": 10,
      "name": "Ut illo illum adipisci repellat repudiandae.",
      "brand": "reprehenderit",
      "description": "Iure impedit consectetur dolor rerum numquam. Nostrum qui exercitationem soluta non. Vitae ullam hic animi. Id voluptas et maiores sit beatae natus. Voluptatem totam accusantium ipsa aliquid quas et vel. Modi officia inventore ut vel sit atque perspiciatis. Laborum quam velit quia exercitationem incidunt. Natus et quis necessitatibus eveniet. Numquam quo est ea et praesentium. Et autem in doloribus sint omnis. Et dolorum nostrum rem vero aliquid expedita. Perferendis delectus tempora corrupti. Architecto non qui perspiciatis ducimus nemo. Ratione et ullam soluta. Omnis et minus vitae omnis a voluptates ad impedit. Repellendus voluptatem ut dolor iure quasi iste cumque. Cumque quia quae sit impedit. Eaque quasi dolorem explicabo quia dolore ea. Aliquid voluptas sit sint est voluptas velit. Dolor aut in odit laboriosam fugiat molestiae. Voluptates est et non ex ad.",
      "section": "clothing",
      "sub_section": "male",
      "category": "T-Shirts",
      "price": 25567.19,
      "color": "Sienna",
      "material": "placeat",
      "images": "[]",
      "options": "[]",
      "created_at": "2019-09-07 14:38:23",
      "updated_at": "2019-09-07 14:38:23"
    },
    {
      "id": 11,
      "name": "Ea dolor impedit dignissimos placeat.",
      "brand": "odio",
      "description": "Ad at incidunt explicabo qui est in. Architecto excepturi eos vel qui fugiat. Vitae culpa delectus dignissimos. Suscipit nihil omnis in adipisci culpa tempora. Beatae maiores rem recusandae eaque. Voluptatem consequatur incidunt non quidem dicta qui suscipit. Aut tenetur et adipisci aliquam at omnis. Autem doloremque quaerat ut et. Omnis enim eum nam dolorem qui dolores maxime deserunt. Repellat assumenda incidunt suscipit aut ut accusamus modi ea. Et recusandae ex odio omnis voluptatum sed. Cum et quae aut dolor. Aperiam ut aut neque tenetur natus rerum laudantium numquam. Est non consequatur perferendis at et et. Autem quaerat consectetur nesciunt voluptas. Voluptatem eos fugiat rerum hic veniam quas facilis nesciunt. Architecto sequi enim minus ut. Aut distinctio quia id animi repudiandae in. Magnam quo eos porro est laboriosam.",
      "section": "clothing",
      "sub_section": "female",
      "category": "Dresses",
      "price": 63442751.11,
      "color": "Beige",
      "material": "quas",
      "images": "[]",
      "options": "[]",
      "created_at": "2019-09-07 14:38:23",
      "updated_at": "2019-09-07 14:38:23"
    },
    {
      "id": 12,
      "name": "Dicta vero quidem dicta sit. Nobis sint quo atque omnis.",
      "brand": "aut",
      "description": "Reiciendis rem esse omnis perspiciatis est. Reiciendis minus ut et dolores est quos. Error veniam sequi ratione optio eligendi nemo. Dolor reprehenderit pariatur aliquam. Debitis saepe in et vel. Non quo facilis beatae sequi modi et labore quasi. Laboriosam dolorum eius consectetur vitae. Rerum neque incidunt animi quia dolorum earum optio sint. Et vel est omnis rerum autem recusandae aut et. Alias et minima culpa repellat accusamus tenetur. Aut voluptas debitis ut eum architecto dolores. Tempora sed quo cumque voluptatem ad recusandae quod. Autem quasi eaque et qui sint rerum. Eveniet aperiam dolores natus enim eum. Laborum nulla ea quidem et consequuntur et quos aut. Ipsam est qui explicabo maiores quisquam. Necessitatibus hic hic perferendis dolorem alias maxime. Aliquid dolor asperiores hic autem. Aliquam ut animi debitis voluptatibus.",
      "section": "bags & watches",
      "sub_section": "female",
      "category": "bags & watches",
      "price": 36352.69,
      "color": "IndianRed",
      "material": "velit",
      "images": "[]",
      "options": "[]",
      "created_at": "2019-09-07 14:38:23",
      "updated_at": "2019-09-07 14:38:23"
    },
    {
      "id": 13,
      "name": "Rem eaque nisi est sit sapiente in. Qui quod repellendus et ut.",
      "brand": "aspernatur",
      "description": "Magnam ex reprehenderit vel quae. Occaecati sint explicabo delectus. Asperiores qui eos numquam sunt voluptate voluptates. Tempora veniam molestias temporibus doloremque minima beatae. Ab qui et beatae quis voluptas dolores. Fugit corporis occaecati sed. Voluptatum impedit labore et nulla. Voluptatibus et dolorum ut necessitatibus. Velit molestiae quae et quos. Quo libero voluptas earum quod veritatis soluta voluptatem. Quidem aliquid corrupti voluptate cumque. Ullam blanditiis expedita neque officia nostrum quia inventore non. Rem et dolore aut libero aut. Eum numquam nisi numquam repellat quos quo eaque. Ullam recusandae voluptates at qui consequuntur. Sint et dolor quis quia ratione consequuntur. Nihil asperiores odit laborum quo adipisci velit et. Nobis neque sapiente autem eos atque tenetur. Aliquam a et recusandae at quo qui. Et eius est quod ullam ut doloremque ipsum. Iusto et laborum molestiae sunt consequatur.",
      "section": "bags & watches",
      "sub_section": "male",
      "category": "bags & watches",
      "price": 280.88,
      "color": "FireBrick",
      "material": "consequuntur",
      "images": "[]",
      "options": "[]",
      "created_at": "2019-09-07 14:38:23",
      "updated_at": "2019-09-07 14:38:23"
    },
    {
      "id": 14,
      "name": "Consequatur et eligendi omnis harum aliquam facilis.",
      "brand": "dolor",
      "description": "Ut voluptatem odit occaecati aliquam aspernatur iusto. Vel labore quasi totam perspiciatis cum fuga. Beatae dolores labore possimus eius. Velit enim consequuntur enim alias laborum quod harum qui. Praesentium delectus adipisci vitae aut minus unde. Distinctio minus quia deleniti praesentium vel. Tenetur sint eos voluptatem nihil consectetur. Iusto nihil ducimus deserunt neque quos magnam. Explicabo soluta dolores ut sed laborum. Et quidem dolor voluptas vitae iste sit. Inventore ut tempora impedit accusantium est esse expedita. Pariatur atque consequatur tempora suscipit quis veritatis officiis. Totam voluptatem voluptatum consectetur cumque qui. Architecto enim praesentium deleniti soluta consequatur vitae voluptatem. Molestiae atque rerum eius voluptatibus illum qui aliquid. Voluptas expedita ipsa corporis quia. Nobis optio atque iusto ea.",
      "section": "accessories",
      "sub_section": "female",
      "category": "accessories",
      "price": 302373.54,
      "color": "LightSteelBlue",
      "material": "velit",
      "images": "[]",
      "options": "[]",
      "created_at": "2019-09-07 14:38:23",
      "updated_at": "2019-09-07 14:38:23"
    },
    {
      "id": 15,
      "name": "Ipsam quas quas distinctio id necessitatibus explicabo aut.",
      "brand": "eos",
      "description": "Rem aut et quas minus dolorem dolorem. Facilis porro consequatur tenetur voluptatum. Quibusdam maxime voluptatibus voluptates rerum et. Nisi dignissimos impedit quibusdam omnis et nihil laborum. Sit est consequatur veritatis eaque. Deserunt consequatur hic vero nesciunt quo sit maxime aut. Ut omnis ab aut magnam et. Exercitationem fuga harum rem iure asperiores. Voluptatem aut suscipit quibusdam autem et. Voluptas accusantium libero accusantium saepe. Et nihil neque qui molestiae. Ea sit et placeat rem id magni id provident. Ea hic consequuntur quaerat nihil officia et est. Quis consequatur et illo asperiores nobis. Placeat ducimus consequatur temporibus atque dolores optio nihil. Reiciendis hic veniam error voluptatibus delectus ducimus ea. Est rerum accusamus voluptatum tenetur praesentium ipsam dolore. Quia repellendus maiores quis quam occaecati et. Dolore voluptate dicta cum error qui quod.",
      "section": "shoes",
      "sub_section": "male",
      "category": "Sneakers",
      "price": 1.05,
      "color": "Cornsilk",
      "material": "adipisci",
      "images": "[]",
      "options": "[]",
      "created_at": "2019-09-07 14:38:23",
      "updated_at": "2019-09-07 14:38:23"
    },
    {
      "id": 16,
      "name": "No no no",
      "brand": "omnis",
      "description": "Repudiandae similique alias voluptatem magni. Iste soluta laboriosam nulla veritatis et illum. Similique odit et sit velit. Error quia esse fuga minus velit. Earum aperiam rerum adipisci tempora occaecati pariatur rerum. Fugiat aut repudiandae necessitatibus necessitatibus dolor quis quaerat et. Molestiae commodi distinctio laborum temporibus ea quo. Neque id qui illo est rerum recusandae quia. Et nulla ad doloremque. Eligendi et fuga minus deserunt. Reprehenderit ipsam aut aut et et accusantium et. Similique dicta quis harum nam error enim accusantium. Omnis dolor et voluptas sed sit eos labore. Quidem ut dolore nisi distinctio tempora atque ut. Nulla maiores rerum quo sed et pariatur id. Nostrum quaerat cum voluptatem aut aspernatur. Error magni debitis nostrum voluptates autem rerum eum. Beatae aliquid ipsa incidunt nesciunt. Animi autem adipisci et consequatur sunt ipsum. Sunt esse nesciunt dolor et vitae ut ipsam.",
      "section": "clothing",
      "sub_section": "male",
      "category": "Sweaters, Jackets, & Coats",
      "price": 35000,
      "color": "Purple",
      "material": "est",
      "images": "[]",
      "options": "[]",
      "created_at": "2019-09-07 14:38:23",
      "updated_at": "2019-09-09 23:59:28"
    },
    {
      "id": 17,
      "name": "Nemo molestias incidunt id est sunt laboriosam consectetur.",
      "brand": "illo",
      "description": "Accusamus voluptatem neque pariatur. Voluptatum minus tenetur expedita iusto rem. Nulla aut ea odit fugit enim minima sit. Et hic sunt sit molestiae deleniti consequatur placeat. Quibusdam architecto sint dolor ut voluptas. Possimus architecto eius ut vitae. Omnis maiores deserunt earum ipsum nihil. Error enim ullam quia enim ex voluptas sed. Quas ut nobis ut adipisci. Nam quasi repudiandae quisquam voluptate et possimus iste. Doloremque consequuntur itaque officiis qui. Iusto animi a laudantium magnam voluptatem deleniti. Sit architecto dolorem id dignissimos voluptas harum commodi. Quia repudiandae deleniti perspiciatis fugiat aut. Fugiat qui non sequi similique et. Quod est quos amet et rerum labore. Eveniet eaque sed vel at voluptatem perferendis fugit laboriosam. Aut eos commodi dolorem ut voluptatem. Nihil laborum quia ea repellat et neque impedit. Dolorem ut aut aut quasi nostrum aliquid qui nemo. Exercitationem reprehenderit est est et odio. Perspiciatis rerum quis qui quasi.",
      "section": "bags & watches",
      "sub_section": "female",
      "category": "bags & watches",
      "price": 350027427.35,
      "color": "SandyBrown",
      "material": "dolores",
      "images": "[]",
      "options": "[]",
      "created_at": "2019-09-07 14:38:23",
      "updated_at": "2019-09-07 14:38:23"
    },
    {
      "id": 18,
      "name": "Quia quod vero non dolor rerum asperiores. Asperiores et nisi vel et.",
      "brand": "voluptatum",
      "description": "Atque neque consectetur totam provident velit. Numquam quis similique tempore. Nesciunt rerum iste tenetur minima vel autem unde. Doloremque omnis molestias quos dolor nostrum excepturi enim. Odio voluptatem natus molestiae accusamus quas corrupti exercitationem. Minus perspiciatis quia amet laboriosam enim. Expedita tenetur velit ut nesciunt. Qui ut quia non architecto non facilis. Vel consequatur ut illum ipsum cupiditate. Numquam sint eaque minus accusantium. Error perferendis voluptatem eum nostrum illum. Ut labore quo et magni voluptatibus earum ut. Ad voluptatem qui ex quod dicta. Molestias in repudiandae non exercitationem aut aspernatur. Voluptas qui porro nobis delectus. Perspiciatis omnis illum facilis aut fuga enim. Sed accusantium autem nostrum maiores et libero. Neque inventore repellendus consequuntur odio harum deleniti. Atque voluptas molestiae porro dignissimos. Qui non suscipit ab possimus incidunt.",
      "section": "clothing",
      "sub_section": "male",
      "category": "Sweatshirts & Hoodies",
      "price": 3466204.69,
      "color": "CadetBlue",
      "material": "aut",
      "images": "[]",
      "options": "[]",
      "created_at": "2019-09-07 14:38:23",
      "updated_at": "2019-09-07 14:38:23"
    },
    {
      "id": 20,
      "name": "Quod totam nisi voluptatem perspiciatis.",
      "brand": "nesciunt",
      "description": "Eos in tempora aut voluptate cum minima rem. Magni rerum error adipisci consequatur delectus provident. Eum dicta labore magni eius alias voluptate. Praesentium et blanditiis porro quia iusto maiores. Similique fugit natus et nihil nesciunt nostrum dolore laudantium. Est ut sequi necessitatibus. Totam sit est et ipsa consequatur. Neque et aliquam nulla ut est nulla non molestiae. Magni iste doloribus voluptas dolor placeat laudantium. Dolores unde consequatur beatae. Odit assumenda ratione quo laborum omnis. Ratione dignissimos quaerat voluptas eveniet. Maxime molestiae reiciendis est porro accusantium et. Sint ut voluptatibus atque et asperiores qui. Quo impedit ut quia eaque culpa excepturi saepe. Libero distinctio dignissimos est et mollitia officia ut. Dolorum quod hic tempora quidem. Totam ut est et distinctio sunt repellendus natus. Nihil doloribus tenetur exercitationem perspiciatis nihil hic.",
      "section": "accessories",
      "sub_section": "female",
      "category": "accessories",
      "price": 0,
      "color": "MediumVioletRed",
      "material": "aspernatur",
      "images": "[]",
      "options": "[]",
      "created_at": "2019-09-07 14:38:23",
      "updated_at": "2019-09-07 14:38:23"
    },
    {
      "id": 21,
      "name": "Autem voluptas modi voluptatem delectus.",
      "brand": "perferendis",
      "description": "Sint repudiandae unde molestiae corrupti non. Dolorum reprehenderit quia ipsa at pariatur. Nemo quia saepe facere qui sit deserunt saepe. Fugiat dolorem cum tenetur repudiandae repellat. Dolorum voluptas officiis nulla. Provident et fugiat molestiae quae. Quidem animi et consequatur. Est dolores cupiditate tenetur vitae. Nisi illo iusto ad. Quos id error dicta occaecati consequuntur. Dicta enim harum nihil eius. In officia quasi non qui molestiae sed. Quidem error dignissimos ipsum inventore ipsam labore. Voluptatum reiciendis recusandae dolores ex. Temporibus enim laudantium ex qui quis. Distinctio sed molestiae eligendi delectus dignissimos quod. Voluptatem minus quis quos architecto tenetur delectus. Porro quae eligendi consequatur eum autem repellat. Sunt non laboriosam rem. Facilis dolore optio quo quasi. Voluptatibus dolorem voluptatem et quis molestias exercitationem aspernatur.",
      "section": "bags & watches",
      "sub_section": "female",
      "category": "bags & watches",
      "price": 11226482.21,
      "color": "IndianRed",
      "material": "sit",
      "images": "[]",
      "options": "[]",
      "created_at": "2019-09-07 14:38:23",
      "updated_at": "2019-09-07 14:38:23"
    }
  ],
  "links": {
    "first": "http:\/\/127.0.0.1:8000\/api\/products?page=1",
    "last": "http:\/\/127.0.0.1:8000\/api\/products?page=15",
    "prev": null,
    "next": "http:\/\/127.0.0.1:8000\/api\/products?page=2"
  },
  "meta": {
    "current_page": 1,
    "from": 1,
    "last_page": 15,
    "path": "http:\/\/127.0.0.1:8000\/api\/products",
    "per_page": 20,
    "to": 20,
    "total": 299
  }
}